<?xml version="1.0" encoding="UTF-8" standalone="no"?>
<!-- Created with Inkscape (http://www.inkscape.org/) -->

<svg
   xmlns:dc="http://purl.org/dc/elements/1.1/"
   xmlns:cc="http://creativecommons.org/ns#"
   xmlns:rdf="http://www.w3.org/1999/02/22-rdf-syntax-ns#"
   xmlns:svg="http://www.w3.org/2000/svg"
   xmlns="http://www.w3.org/2000/svg"
   xmlns:sodipodi="http://sodipodi.sourceforge.net/DTD/sodipodi-0.dtd"
   xmlns:inkscape="http://www.inkscape.org/namespaces/inkscape"
   width="744.09448819"
   height="1052.3622047"
   id="svg3744"
   version="1.1"
   inkscape:version="0.48.4 r9939"
   sodipodi:docname="identity.svg">
  <defs
     id="defs3746">
    <clipPath
       clipPathUnits="userSpaceOnUse"
       id="clipPath10099">
      <rect
         y="217.88704"
         x="301.1839"
         height="30.057295"
         width="28.488331"
         id="rect10101"
         style="color:#000000;fill:#ffffff;fill-opacity:1;fill-rule:nonzero;stroke:#5f8dd3;stroke-width:1.76499999;stroke-linecap:round;stroke-linejoin:round;stroke-miterlimit:4;stroke-opacity:1;stroke-dasharray:none;stroke-dashoffset:0;marker:none;visibility:visible;display:inline;overflow:visible;enable-background:accumulate" />
    </clipPath>
    <inkscape:path-effect
       is_visible="true"
       id="path-effect4543-2-8"
       effect="spiro" />
  </defs>
  <sodipodi:namedview
     id="base"
     pagecolor="#ffffff"
     bordercolor="#666666"
     borderopacity="1.0"
     inkscape:pageopacity="0.0"
     inkscape:pageshadow="2"
     inkscape:zoom="1.1504296"
     inkscape:cx="189.16329"
     inkscape:cy="357.91011"
     inkscape:document-units="px"
     inkscape:current-layer="layer1"
     showgrid="false"
     inkscape:window-width="718"
     inkscape:window-height="879"
     inkscape:window-x="0"
     inkscape:window-y="19"
     inkscape:window-maximized="0" />
  <metadata
     id="metadata3749">
    <rdf:RDF>
      <cc:Work
         rdf:about="">
        <dc:format>image/svg+xml</dc:format>
        <dc:type
           rdf:resource="http://purl.org/dc/dcmitype/StillImage" />
        <dc:title></dc:title>
      </cc:Work>
    </rdf:RDF>
  </metadata>
  <g
     inkscape:label="Layer 1"
     inkscape:groupmode="layer"
     id="layer1">
    <g
       id="g3821"
       transform="matrix(4.9342412,0,0,4.9342412,-2260.4327,-3344.1223)">
      <rect
         inkscape:export-ydpi="443.98755"
         inkscape:export-xdpi="443.98755"
         y="756.81567"
         x="473.59549"
         height="55.005875"
         width="119.83424"
         id="rect10109"
         style="color:#000000;fill:#ffffff;stroke:#5f8dd3;stroke-width:1.76499999;stroke-linecap:round;stroke-linejoin:round;stroke-miterlimit:4;stroke-opacity:1;stroke-dasharray:none;stroke-dashoffset:0;marker:none;visibility:visible;display:inline;overflow:visible;enable-background:accumulate" />
      <rect
         y="772.07416"
         x="483.31967"
         height="30.057295"
         width="28.488331"
         id="rect10051"
         style="color:#000000;fill:#ffffff;fill-opacity:1;fill-rule:nonzero;stroke:#5f8dd3;stroke-width:1.76499999;stroke-linecap:round;stroke-linejoin:round;stroke-miterlimit:4;stroke-opacity:1;stroke-dasharray:none;stroke-dashoffset:0;marker:none;visibility:visible;display:inline;overflow:visible;enable-background:accumulate" />
      <g
         style="fill:#5f8dd3;fill-opacity:1"
         id="g7357-6"
         transform="matrix(0,0.17466792,-0.17466792,0,657.46412,719.56529)"
         inkscape:export-xdpi="134.53"
         inkscape:export-ydpi="134.53">
        <path
           inkscape:connector-curvature="0"
           id="rect7319-4"
           d="m 433.61977,803.34911 6.56988,-11.38163 13.14902,0 5.70932,9.89184 22.4764,0 c 0.66699,0 1.20294,0.53596 1.20294,1.20294 l 0,0.58296 c 0,0.66698 -0.53595,1.20293 -1.20294,1.20293 l -0.61072,0 0,0.86057 0,4.36759 -1.30474,0 0,-1.63786 c 0,-0.1668 -0.35079,-0.30535 -0.50892,-0.30535 -0.15809,0 -0.53669,0.13855 -0.53669,0.30535 l 0,0.74027 -0.72176,0 c 0,0 -0.12931,-0.30535 -0.29611,-0.30535 l -0.0833,0 c -0.16679,0 -0.30534,0.13855 -0.30534,0.30535 l 0,0.89759 -0.87909,0 0,-1.18443 c 0,-0.16683 -0.13854,-0.30538 -0.30534,-0.30538 l -0.96235,0 c -0.16683,0 -0.30535,0.13855 -0.30535,0.30538 l 0,1.18443 -0.8513,0 0,-4.36759 0,-0.86057 -14.81464,0 -5.70007,9.88258 -13.14902,0 -6.56988,-11.38162 z"
           style="color:#000000;fill:#5f8dd3;fill-opacity:1;fill-rule:nonzero;stroke:none;stroke-width:1.76498926;marker:none;visibility:visible;display:inline;overflow:visible;enable-background:accumulate" />
      </g>
      <g
         transform="translate(182.13576,554.18711)"
         clip-path="url(#clipPath10099)"
         id="g10088"
         inkscape:groupmode="maskhelper">
        <g
           id="g10076"
           transform="translate(39.289912,0.53577155)">
          <path
             style="color:#000000;fill:#ffffff;fill-opacity:1;fill-rule:nonzero;stroke:#5f8dd3;stroke-width:1.76499999;stroke-linecap:round;stroke-linejoin:round;stroke-miterlimit:4;stroke-opacity:1;stroke-dasharray:none;stroke-dashoffset:0;marker:none;visibility:visible;display:inline;overflow:visible;enable-background:accumulate"
             d="m 276.22279,261.05253 11.53125,0 c -0.003,-0.4264 0.003,-0.8549 0,-1.2812 -0.0159,-2.1151 -0.006,-4.2286 0,-6.3438 0.007,-2.1898 0.01,-4.3726 0,-6.5625 -0.002,-0.488 0.0205,-0.9835 -0.0312,-1.4687 -0.13816,-1.2964 -0.65658,-2.5498 -1.4375,-3.5938 -0.78093,-1.044 -1.82665,-1.8763 -3.03125,-2.375 -1.2046,-0.4987 -2.55343,-0.6553 -3.84375,-0.4687 -1.29032,0.1865 -2.51721,0.7118 -3.53125,1.5312 l 0.34375,20.5625 z"
             id="path4537-1-5"
             inkscape:connector-curvature="0" />
          <path
             style="color:#000000;fill:#ffffff;fill-opacity:1;fill-rule:nonzero;stroke:#5f8dd3;stroke-width:1.76499999;stroke-linecap:round;stroke-linejoin:round;stroke-miterlimit:4;stroke-opacity:1;stroke-dasharray:none;stroke-dashoffset:0;marker:none;visibility:visible;display:inline;overflow:visible;enable-background:accumulate"
             d="m 277.49927,247.87963 -4.84936,4.8529 -11.36031,4.3229 0,2.3576 17.08467,-1.25 4.40849,-4.9618"
             id="path4541-4-6"
             inkscape:path-effect="#path-effect4543-2-8"
             inkscape:original-d="m 277.49927,247.87963 -4.84936,4.8529 -11.36031,4.3229 0,2.3576 17.08467,-1.25 4.40849,-4.9618"
             inkscape:connector-curvature="0"
             sodipodi:nodetypes="cccccc" />
          <path
             sodipodi:nodetypes="ccccc"
             inkscape:connector-curvature="0"
             id="path4545-0-1"
             d="m 260.89175,257.09603 c 0,0 -1.86103,-1.3502 -4.07201,0.7359 -0.23783,1.1799 0.26515,1.6575 0.26515,1.6575 l 3.832,0.035 z"
             style="color:#000000;fill:#ffffff;fill-opacity:1;fill-rule:nonzero;stroke:#5f8dd3;stroke-width:1.76499999;stroke-linecap:round;stroke-linejoin:round;stroke-miterlimit:4;stroke-opacity:1;stroke-dasharray:none;stroke-dashoffset:0;marker:none;visibility:visible;display:inline;overflow:visible;enable-background:accumulate" />
          <g
             style="color:#000000;fill:#ffffff;fill-opacity:1;fill-rule:nonzero;stroke:#5f8dd3;stroke-width:1.76499999;stroke-linecap:round;stroke-linejoin:round;stroke-miterlimit:4;stroke-opacity:1;stroke-dasharray:none;stroke-dashoffset:0;marker:none;visibility:visible;display:inline;overflow:visible;enable-background:accumulate"
             transform="matrix(0.96413139,0.26542543,-0.26542543,0.96413139,79.228356,-68.277796)"
             id="g10045">
            <g
               style="color:#000000;fill:#ffffff;fill-opacity:1;fill-rule:nonzero;stroke:#5f8dd3;stroke-width:1.76499999;stroke-linecap:round;stroke-linejoin:round;stroke-miterlimit:4;stroke-opacity:1;stroke-dasharray:none;stroke-dashoffset:0;marker:none;visibility:visible;display:inline;overflow:visible;enable-background:accumulate"
               id="g4531-4-9"
               transform="matrix(-0.95144852,0.30780791,0.30780791,0.95144852,754.51798,-287.3238)">
              <path
                 sodipodi:nodetypes="ssssscccsss"
                 id="path4533-6-8"
                 d="m 620.03942,344.29143 c -2.59977,0.26402 -4.625,2.48682 -4.625,5.15625 l 0,5.70857 c 0,2.84739 2.30886,5.15625 5.15625,5.15625 2.84739,0 5.15625,-2.30886 5.15625,-5.15625 l 0,-0.90625 2.71875,-0.0625 c 0.0244,-2.15098 -1.65479,-3.48205 -2.71875,-4.125 l 0,-0.61482 c 0,-2.84739 -2.30886,-5.15625 -5.15625,-5.15625 -0.17796,0 -0.35793,-0.0176 -0.53125,0 z"
                 style="color:#000000;fill:#ffffff;fill-opacity:1;fill-rule:nonzero;stroke:#5f8dd3;stroke-width:1.76499999;stroke-linecap:round;stroke-linejoin:round;stroke-miterlimit:4;stroke-opacity:1;stroke-dasharray:none;stroke-dashoffset:0;marker:none;visibility:visible;display:inline;overflow:visible;enable-background:accumulate"
                 inkscape:connector-curvature="0" />
              <path
                 transform="translate(348.41125,0.21364798)"
                 sodipodi:open="true"
                 sodipodi:end="4.0130333"
                 sodipodi:start="2.1549128"
                 d="m 274.8925,351.75972 c -0.68863,-0.45523 -0.87784,-1.38251 -0.42261,-2.07114 0.0791,-0.11963 0.17496,-0.22725 0.2847,-0.31956"
                 sodipodi:ry="1.4946961"
                 sodipodi:rx="1.4946961"
                 sodipodi:cy="350.51285"
                 sodipodi:cx="275.71677"
                 id="path4535-7-2"
                 style="color:#000000;fill:#ffffff;fill-opacity:1;fill-rule:nonzero;stroke:#5f8dd3;stroke-width:1.76499999;stroke-linecap:round;stroke-linejoin:round;stroke-miterlimit:4;stroke-opacity:1;stroke-dasharray:none;stroke-dashoffset:0;marker:none;visibility:visible;display:inline;overflow:visible;enable-background:accumulate"
                 sodipodi:type="arc" />
            </g>
            <path
               style="color:#000000;fill:#ffffff;fill-opacity:1;fill-rule:nonzero;stroke:#5f8dd3;stroke-width:1.76499999;stroke-linecap:round;stroke-linejoin:round;stroke-miterlimit:4;stroke-opacity:1;stroke-dasharray:none;stroke-dashoffset:0;marker:none;visibility:visible;display:inline;overflow:visible;enable-background:accumulate"
               d="m 277.34227,241.34723 c -0.0859,-4.6438 -1.38579,-3.7594 -3.30318,-5.6768 -1.91739,-1.9174 -0.69031,-4.1468 -6.31117,-2.6413 -1.80989,0.485 -3.42692,0.8994 -3.9068,-0.8915 -0.47989,-1.791 1.77848,-2.7078 1.77848,-2.7078 0,0 5.26447,-1.4106 8.02027,-2.149 2.8875,-0.7737 4.72084,0.4992 6.00764,5.3016 1.28681,4.8024 1.82441,6.8088 1.82441,6.8088 -1.56134,3.1834 -0.84442,0.9672 -4.10965,1.956 z"
               id="path3376-4-6-6"
               inkscape:connector-curvature="0"
               sodipodi:nodetypes="czczcsscc" />
          </g>
        </g>
      </g>
      <rect
         style="color:#000000;fill:none;stroke:#5f8dd3;stroke-width:1.76499999;stroke-linecap:round;stroke-linejoin:round;stroke-miterlimit:4;stroke-opacity:1;stroke-dasharray:none;stroke-dashoffset:0;marker:none;visibility:visible;display:inline;overflow:visible;enable-background:accumulate"
         id="rect10103"
         width="28.488331"
         height="30.057295"
         x="483.31967"
         y="772.07416" />
      <text
         sodipodi:linespacing="125%"
         id="text10105"
         y="782.53528"
         x="521.84222"
         style="font-size:6.59162331px;font-style:normal;font-variant:normal;font-weight:bold;font-stretch:normal;line-height:125%;letter-spacing:0px;word-spacing:0px;fill:#5f8dd3;fill-opacity:1;stroke:none;font-family:Dosis;-inkscape-font-specification:Dosis Bold"
         xml:space="preserve"><tspan
           y="782.53528"
           x="521.84222"
           id="tspan10107"
           sodipodi:role="line">Bob Rijndael</tspan></text>
      <rect
         y="756.81567"
         x="473.59549"
         height="7.143631"
         width="119.65565"
         id="rect10111"
         style="color:#000000;fill:#5f8dd3;fill-opacity:1;stroke:#5f8dd3;stroke-width:1.76499999;stroke-linecap:round;stroke-linejoin:round;stroke-miterlimit:4;stroke-opacity:1;stroke-dasharray:none;stroke-dashoffset:0;marker:none;visibility:visible;display:inline;overflow:visible;enable-background:accumulate" />
      <g
         transform="translate(182.13576,549.04349)"
         id="g10123">
        <path
           sodipodi:type="arc"
           style="color:#000000;fill:#5f8dd3;fill-opacity:1;fill-rule:nonzero;stroke:none;stroke-width:1.76499999;marker:none;visibility:visible;display:inline;overflow:visible;enable-background:accumulate"
           id="path10113"
           sodipodi:cx="334.7435"
           sodipodi:cy="230.42059"
           sodipodi:rx="1.5469613"
           sodipodi:ry="1.5469613"
           d="m 336.29046,230.42059 c 0,0.85437 -0.6926,1.54696 -1.54696,1.54696 -0.85436,0 -1.54696,-0.69259 -1.54696,-1.54696 0,-0.85436 0.6926,-1.54696 1.54696,-1.54696 0.85436,0 1.54696,0.6926 1.54696,1.54696 z"
           transform="matrix(1.2857143,0,0,1.2857143,-95.451577,-56.462942)" />
        <path
           style="fill:#5f8dd3;fill-opacity:1;stroke:none"
           d="m 332.94398,240.05999 2.0205,4.13575 1.9574,-4.13575 z"
           id="path10115"
           inkscape:connector-curvature="0"
           sodipodi:nodetypes="cccc" />
      </g>
      <text
         xml:space="preserve"
         style="font-size:6.66403437px;font-style:normal;font-variant:normal;font-weight:bold;font-stretch:normal;line-height:125%;letter-spacing:0px;word-spacing:0px;fill:#5f8dd3;fill-opacity:1;stroke:none;font-family:Dosis;-inkscape-font-specification:Dosis Bold"
         x="521.6593"
         y="793.15741"
         id="text10119"
         sodipodi:linespacing="125%"><tspan
           style="font-weight:normal;-inkscape-font-specification:Dosis"
           sodipodi:role="line"
           id="tspan10121"
           x="521.6593"
           y="793.15741">Boston, MA</tspan></text>
      <text
         sodipodi:linespacing="125%"
         id="text10236"
         y="803.37262"
         x="521.6593"
         style="font-size:6.66403437px;font-style:normal;font-variant:normal;font-weight:bold;font-stretch:normal;line-height:125%;letter-spacing:0px;word-spacing:0px;fill:#5f8dd3;fill-opacity:1;stroke:none;font-family:Dosis;-inkscape-font-specification:Dosis Bold"
         xml:space="preserve"><tspan
           y="803.37262"
           x="521.6593"
           id="tspan10238"
           sodipodi:role="line"
           style="font-weight:normal;-inkscape-font-specification:Dosis">20C4E8A2</tspan></text>
      <text
         xml:space="preserve"
         style="font-size:5.21627188px;font-style:normal;font-variant:normal;font-weight:bold;font-stretch:normal;line-height:125%;letter-spacing:0px;word-spacing:0px;fill:#5f8dd3;fill-opacity:1;stroke:none;font-family:Dosis;-inkscape-font-specification:Dosis Bold"
         x="533.14117"
         y="811.60986"
         id="text10261"
         sodipodi:linespacing="125%"><tspan
           style="font-weight:normal;-inkscape-font-specification:Dosis"
           sodipodi:role="line"
           id="tspan10263"
           x="533.14117"
           y="811.60986">Swimming, reading, encrypting</tspan></text>
      <text
         xml:space="preserve"
         style="font-size:6.59162331px;font-style:normal;font-variant:normal;font-weight:bold;font-stretch:normal;line-height:125%;letter-spacing:0px;word-spacing:0px;fill:#5f8dd3;fill-opacity:1;stroke:none;font-family:Dosis;-inkscape-font-specification:Dosis Bold"
         x="515.23438"
         y="812.53845"
         id="text10265"
         sodipodi:linespacing="125%"><tspan
           sodipodi:role="line"
           id="tspan10267"
           x="515.23438"
           y="812.53845">Loves:</tspan></text>
    </g>
  </g>
</svg>
